…
data %>% group_by(Region) %>% summarize_if(is.numeric,list(xxxmean = mean, xxxsd = sd ,  xxxse = function(x) sd(x) / sqrt(N), xxxmin = min,xxxper25 = function(x) quantile(x,0.25), xxxmedian = median,xxxper75 = function(x) quantile(x, 0.75),xxxmax =  max, xxxrange = function(x) max(x) - min(x))) %>% pivot_longer(cols = !Region) %>% separate(name, into = c("variable", "stat"), sep = "_xxx") %>% pivot_wider(names_from = variable, values_from = value)

## # A tibble: 45 x 8
##    Region stat  mo_Rate in_Rate total_number_of… rates_of_adhere… of_adherents
##    <chr>  <chr>   <dbl>   <dbl>            <dbl>            <dbl>        <dbl>
##  1 Midwe… mean   166.    450.              6812.           526.        0.526  
##  2 Midwe… sd       9.85   11.6             3957.            70.5       0.0705 
##  3 Midwe… se       1.39    1.65             560.             9.97      0.00997
##  4 Midwe… min    151.    431.              1498            421.        0.421  
##  5 Midwe… per25  159.    442.              4302.           480.        0.480  
##  6 Midwe… medi…  166.    450.              6016.           537.        0.537  
##  7 Midwe… per75  173.    458.              9176            558.        0.558  
##  8 Midwe… max    179.    472.             13606            671.        0.671  
##  9 Midwe… range   28.6    40.5            12108            250.        0.250  
## 10 North… mean   163.    466.              4789.           457.        0.457  
## # … with 35 more rows, and 1 more variable:
## #   of_adults_who_are_highly_religious <dbl>
…
